<?xml version="1.0" standalone="no"?>
<!DOCTYPE svg PUBLIC "-//W3C//DTD SVG 20010904//EN"
 "http://www.w3.org/TR/2001/REC-SVG-20010904/DTD/svg10.dtd">
<svg version="1.0" xmlns="http://www.w3.org/2000/svg"
 width="260.000000pt" height="260.000000pt" viewBox="0 0 260.000000 260.000000"
 preserveAspectRatio="xMidYMid meet">
<metadata>
Created by potrace 1.11, written by Peter Selinger 2001-2013
</metadata>
<g transform="translate(0.000000,260.000000) scale(0.100000,-0.100000)"
fill="#000000" stroke="none">
<path d="M0 1300 l0 -1300 1300 0 1300 0 0 1300 0 1300 -1300 0 -1300 0 0
-1300z m2255 730 l130 -130 -110 -110 c-60 -60 -114 -110 -120 -110 -5 0 -67
57 -137 127 l-128 128 112 112 c62 62 115 113 118 113 3 0 64 -58 135 -130z
m-830 -710 l-425 -425 32 -33 33 -32 425 425 425 425 63 -63 62 -62 -563 -561
-562 -562 -234 -106 c-129 -58 -236 -104 -238 -102 -2 2 42 107 98 232 l102
229 566 567 566 568 37 -37 38 -37 -425 -426z"/>
<path d="M826 722 c-34 -35 -61 -78 -92 -147 -24 -54 -43 -99 -42 -100 2 -2
45 17 96 40 65 29 109 58 143 91 27 26 46 50 44 52 -3 3 -22 8 -42 11 -36 6
-39 9 -48 54 l-10 48 -49 -49z"/>
</g>
</svg>
